PJ1/output/RTL/wave/dotprod.vcd
$date
	Wed Apr 16 00:47:30 2025
$end
$version
	Icarus Verilog
$end
$timescale
	1ns
$end
$scope module tb_dotprod $end
$var wire 1 ! b_we0 $end
$var wire 32 " b_q0 [31:0] $end
$var wire 1 # b_ce0 $end
$var wire 32 $ b_address1 [31:0] $end
$var wire 32 % b_address0 [31:0] $end
$var wire 32 & b_ad1 [31:0] $end
$var wire 32 ' b_ad0 [31:0] $end
$var wire 32 ( ap_return [31:0] $end
$var wire 1 ) ap_idle $end
$var wire 1 * ap_done $end
$var wire 1 + a_we0 $end
$var wire 32 , a_q0 [31:0] $end
$var wire 1 - a_ce0 $end
$var wire 32 . a_address1 [31:0] $end
$var wire 32 / a_address0 [31:0] $end
$var wire 32 0 a_ad1 [31:0] $end
$var wire 32 1 a_ad0 [31:0] $end
$var parameter 32 2 END_TIME $end
$var reg 32 3 aadr [31:0] $end
$var reg 32 4 ad [31:0] $end
$var reg 1 5 ap_clk $end
$var reg 1 6 ap_rst_n $end
$var reg 1 7 ap_start $end
$var reg 32 8 badr [31:0] $end
$var reg 32 9 bd [31:0] $end
$var reg 32 : n [31:0] $end
$var reg 1 ; wa $end
$var reg 1 < wb $end
$scope module a $end
$var wire 32 = address0 [31:0] $end
$var wire 32 > d0 [31:0] $end
$var wire 1 ? we0 $end
$var wire 1 - ce0 $end
$var reg 32 @ q0 [31:0] $end
$upscope $end
$scope module b $end
$var wire 32 A address0 [31:0] $end
$var wire 32 B d0 [31:0] $end
$var wire 1 C we0 $end
$var wire 1 # ce0 $end
$var reg 32 D q0 [31:0] $end
$upscope $end
$scope module dut $end
$var wire 32 E a_q0 [31:0] $end
$var wire 1 5 ap_clk $end
$var wire 32 F ap_return [31:0] $end
$var wire 1 6 ap_rst_n $end
$var wire 1 7 ap_start $end
$var wire 32 G b_q0 [31:0] $end
$var wire 32 H n [31:0] $end
$var wire 1 I cond $end
$var parameter 5 J state_0 $end
$var parameter 5 K state_calc $end
$var parameter 5 L state_fiction_head $end
$var parameter 5 M state_ret $end
$var parameter 5 N state_start $end
$var reg 5 O CurrentState [4:0] $end
$var reg 5 P LastState [4:0] $end
$var reg 32 Q Mem_c [31:0] $end
$var reg 32 R Mem_cl [31:0] $end
$var reg 32 S Mem_cr [31:0] $end
$var reg 32 T Mem_i [31:0] $end
$var reg 32 U Mem_i_inc [31:0] $end
$var reg 32 V a_ad0 [31:0] $end
$var reg 32 W a_address0 [31:0] $end
$var reg 1 - a_ce0 $end
$var reg 1 + a_we0 $end
$var reg 1 * ap_done $end
$var reg 1 ) ap_idle $end
$var reg 32 X b_ad0 [31:0] $end
$var reg 32 Y b_address0 [31:0] $end
$var reg 1 # b_ce0 $end
$var reg 1 ! b_we0 $end
$var reg 1 Z branch_ready $end
$var reg 32 [ counter [31:0] $end
$var reg 32 \ reg_1 [31:0] $end
$var reg 32 ] reg_2 [31:0] $end
$var reg 32 ^ reg_3 [31:0] $end
$var reg 32 _ reg_4 [31:0] $end
$upscope $end
$upscope $end
$enddefinitions $end
$comment Show the parameter values. $end
$dumpall
b100 N
b1 M
b10000 L
b10 K
b1000 J
b1001110001000 2
$end
#0
$dumpvars
bx _
bx ^
bx ]
bx \
b0 [
xZ
bx Y
bx X
bx W
bx V
bx U
bx T
bx S
bx R
bx Q
b10000 P
b10000 O
0I
bx H
bx G
bx F
bx E
bx D
1C
bx B
bx A
bx @
1?
bx >
bx =
1<
1;
bx :
bx 9
bx 8
07
06
05
bx 4
bx 3
bx 1
bx 0
bx /
bx .
x-
bx ,
x+
0*
x)
bx (
bx '
bx &
bx %
bx $
x#
bx "
x!
$end
#2
b1010 &
b1010 B
b1 0
b1 >
b0 $
b0 A
b0 .
b0 =
b1010 9
b1 4
b0 8
b0 3
#4
b1001 &
b1001 B
b10 0
b10 >
b1 $
b1 A
b1 .
b1 =
b1001 9
b10 4
b1 8
b1 3
#5
15
#6
b1000 &
b1000 B
b11 0
b11 >
b10 $
b10 A
b10 .
b10 =
b1000 9
b11 4
b10 8
b10 3
#8
b111 &
b111 B
b100 0
b100 >
b11 $
b11 A
b11 .
b11 =
b111 9
b100 4
b11 8
b11 3
#10
b110 &
b110 B
b101 0
b101 >
b100 $
b100 A
b100 .
b100 =
b110 9
b101 4
b100 8
b100 3
05
#12
b101 &
b101 B
b110 0
b110 >
b101 $
b101 A
b101 .
b101 =
b101 9
b110 4
b101 8
b101 3
#14
b100 &
b100 B
b111 0
b111 >
b110 $
b110 A
b110 .
b110 =
b100 9
b111 4
b110 8
b110 3
#15
15
#16
b11 &
b11 B
b1000 0
b1000 >
b111 $
b111 A
b111 .
b111 =
b11 9
b1000 4
b111 8
b111 3
#18
b10 &
b10 B
b1001 0
b1001 >
b1000 $
b1000 A
b1000 .
b1000 =
b10 9
b1001 4
b1000 8
b1000 3
#20
b1 &
b1 B
b1010 0
b1010 >
b1001 $
b1001 A
b1001 .
b1001 =
b1 9
b1010 4
b1001 8
b1001 3
05
#25
15
#30
05
#35
15
#40
bx 0
bx >
bx &
bx B
bx .
bx =
bx $
bx A
xC
x?
05
b1010 :
b1010 H
16
17
0<
0;
#45
b1 [
15
#50
05
#55
1Z
b0 [
15
#60
05
#65
b0 (
b0 F
b0 \
b1 [
0Z
b1000 O
15
#70
05
#75
1Z
b0 Q
b10 [
15
#80
05
#85
b0 ]
bx (
bx F
bx \
xI
b0 [
0Z
b100 O
b1000 P
15
#90
05
#95
b0 (
b0 F
b0 \
b1 [
15
#100
05
#105
b10 [
15
#110
05
#115
0I
b0 ^
b11 [
15
#120
05
#125
b100 [
15
#130
05
#135
b101 [
15
#140
05
#145
1Z
b0 R
b0 T
b110 [
15
#150
05
#155
0Z
b10 O
b100 P
b0 [
15
#160
05
#165
b1 ,
b1 @
b1 E
b0 .
b0 =
b1 ^
b0 /
b0 W
1-
b1 [
15
#170
05
#175
b10 [
15
#180
05
#185
b1 _
0-
b11 [
15
#190
05
#195
b1010 "
b1010 D
b1010 G
b0 $
b0 A
b0 %
b0 Y
1#
b100 [
15
#200
05
#205
b101 [
15
#210
05
#215
b1010 ]
0#
b110 [
15
#220
05
#225
b111 [
15
#230
05
#235
b1000 [
15
#240
05
#245
b1001 [
15
#250
05
#255
b1010 [
15
#260
05
#265
b1011 [
15
#270
05
#275
b1010 (
b1010 F
b1010 \
b1100 [
15
#280
05
#285
b1101 [
15
#290
05
#295
1Z
b1010 S
b1 U
b1110 [
15
#300
05
#305
b1010 ^
b0 ]
b1 (
b1 F
b1 \
0I
b0 [
0Z
b100 O
b10 P
15
#310
05
#315
b1010 (
b1010 F
b1010 \
b1 ]
b1 [
15
#320
05
#325
b10 [
15
#330
05
#335
b0 ^
b11 [
15
#340
05
#345
b100 [
15
#350
05
#355
b101 [
15
#360
05
#365
1Z
b1010 R
b1 T
b110 [
15
#370
05
#375
0Z
b10 O
b100 P
b0 [
15
#380
05
#385
b10 ,
b10 @
b10 E
b1 .
b1 =
b10 ^
b1 /
b1 W
1-
b1 [
15
#390
05
#395
b10 [
15
#400
05
#405
b10 _
0-
b11 [
15
#410
05
#415
b1001 "
b1001 D
b1001 G
b1 $
b1 A
b1 %
b1 Y
1#
b100 [
15
#420
05
#425
b101 [
15
#430
05
#435
b1001 ]
0#
b110 [
15
#440
05
#445
b10010 ]
b111 [
15
#450
05
#455
b1000 [
15
#460
05
#465
b1001 [
15
#470
05
#475
b1010 [
15
#480
05
#485
b1011 [
15
#490
05
#495
b11100 (
b11100 F
b11100 \
b1100 [
15
#500
05
#505
b1101 [
15
#510
05
#515
1Z
b11100 S
b10 U
b1110 [
15
#520
05
#525
b11100 ^
b0 ]
b10 (
b10 F
b10 \
b0 [
0Z
b100 O
b10 P
15
#530
05
#535
b11100 (
b11100 F
b11100 \
b10 ]
b1 [
15
#540
05
#545
b10 [
15
#550
05
#555
b0 ^
b11 [
15
#560
05
#565
b100 [
15
#570
05
#575
b101 [
15
#580
05
#585
1Z
b11100 R
b10 T
b110 [
15
#590
05
#595
0Z
b10 O
b100 P
b0 [
15
#600
05
#605
b11 ,
b11 @
b11 E
b10 .
b10 =
b11 ^
b10 /
b10 W
1-
b1 [
15
#610
05
#615
b10 [
15
#620
05
#625
b11 _
0-
b11 [
15
#630
05
#635
b1000 "
b1000 D
b1000 G
b10 $
b10 A
b10 %
b10 Y
1#
b100 [
15
#640
05
#645
b101 [
15
#650
05
#655
b1000 ]
0#
b110 [
15
#660
05
#665
b11000 ]
b111 [
15
#670
05
#675
b1000 [
15
#680
05
#685
b1001 [
15
#690
05
#695
b1010 [
15
#700
05
#705
b1011 [
15
#710
05
#715
b110100 (
b110100 F
b110100 \
b1100 [
15
#720
05
#725
b1101 [
15
#730
05
#735
1Z
b110100 S
b11 U
b1110 [
15
#740
05
#745
b110100 ^
b0 ]
b11 (
b11 F
b11 \
0I
b0 [
0Z
b100 O
b10 P
15
#750
05
#755
b110100 (
b110100 F
b110100 \
b11 ]
b1 [
15
#760
05
#765
b10 [
15
#770
05
#775
b0 ^
b11 [
15
#780
05
#785
b100 [
15
#790
05
#795
b101 [
15
#800
05
#805
1Z
b110100 R
b11 T
b110 [
15
#810
05
#815
0Z
b10 O
b100 P
b0 [
15
#820
05
#825
b100 ,
b100 @
b100 E
b11 .
b11 =
b100 ^
b11 /
b11 W
1-
b1 [
15
#830
05
#835
b10 [
15
#840
05
#845
b100 _
0-
b11 [
15
#850
05
#855
b111 "
b111 D
b111 G
b11 $
b11 A
b11 %
b11 Y
1#
b100 [
15
#860
05
#865
b101 [
15
#870
05
#875
b111 ]
0#
b110 [
15
#880
05
#885
b11100 ]
b111 [
15
#890
05
#895
b1000 [
15
#900
05
#905
b1001 [
15
#910
05
#915
b1010 [
15
#920
05
#925
b1011 [
15
#930
05
#935
b1010000 (
b1010000 F
b1010000 \
b1100 [
15
#940
05
#945
b1101 [
15
#950
05
#955
1Z
b1010000 S
b100 U
b1110 [
15
#960
05
#965
b1010000 ^
b0 ]
b100 (
b100 F
b100 \
b0 [
0Z
b100 O
b10 P
15
#970
05
#975
b1010000 (
b1010000 F
b1010000 \
b100 ]
b1 [
15
#980
05
#985
b10 [
15
#990
05
#995
b0 ^
b11 [
15
#1000
05
#1005
b100 [
15
#1010
05
#1015
b101 [
15
#1020
05
#1025
1Z
b1010000 R
b100 T
b110 [
15
#1030
05
#1035
0Z
b10 O
b100 P
b0 [
15
#1040
05
#1045
b101 ,
b101 @
b101 E
b100 .
b100 =
b101 ^
b100 /
b100 W
1-
b1 [
15
#1050
05
#1055
b10 [
15
#1060
05
#1065
b101 _
0-
b11 [
15
#1070
05
#1075
b110 "
b110 D
b110 G
b100 $
b100 A
b100 %
b100 Y
1#
b100 [
15
#1080
05
#1085
b101 [
15
#1090
05
#1095
b110 ]
0#
b110 [
15
#1100
05
#1105
b11110 ]
b111 [
15
#1110
05
#1115
b1000 [
15
#1120
05
#1125
b1001 [
15
#1130
05
#1135
b1010 [
15
#1140
05
#1145
b1011 [
15
#1150
05
#1155
b1101110 (
b1101110 F
b1101110 \
b1100 [
15
#1160
05
#1165
b1101 [
15
#1170
05
#1175
1Z
b1101110 S
b101 U
b1110 [
15
#1180
05
#1185
b1101110 ^
b0 ]
b101 (
b101 F
b101 \
0I
b0 [
0Z
b100 O
b10 P
15
#1190
05
#1195
b1101110 (
b1101110 F
b1101110 \
b101 ]
b1 [
15
#1200
05
#1205
b10 [
15
#1210
05
#1215
b0 ^
b11 [
15
#1220
05
#1225
b100 [
15
#1230
05
#1235
b101 [
15
#1240
05
#1245
1Z
b1101110 R
b101 T
b110 [
15
#1250
05
#1255
0Z
b10 O
b100 P
b0 [
15
#1260
05
#1265
b110 ,
b110 @
b110 E
b101 .
b101 =
b110 ^
b101 /
b101 W
1-
b1 [
15
#1270
05
#1275
b10 [
15
#1280
05
#1285
b110 _
0-
b11 [
15
#1290
05
#1295
b101 "
b101 D
b101 G
b101 $
b101 A
b101 %
b101 Y
1#
b100 [
15
#1300
05
#1305
b101 [
15
#1310
05
#1315
0#
b110 [
15
#1320
05
#1325
b11110 ]
b111 [
15
#1330
05
#1335
b1000 [
15
#1340
05
#1345
b1001 [
15
#1350
05
#1355
b1010 [
15
#1360
05
#1365
b1011 [
15
#1370
05
#1375
b10001100 (
b10001100 F
b10001100 \
b1100 [
15
#1380
05
#1385
b1101 [
15
#1390
05
#1395
1Z
b10001100 S
b110 U
b1110 [
15
#1400
05
#1405
b10001100 ^
b0 ]
b110 (
b110 F
b110 \
b0 [
0Z
b100 O
b10 P
15
#1410
05
#1415
b10001100 (
b10001100 F
b10001100 \
b110 ]
b1 [
15
#1420
05
#1425
b10 [
15
#1430
05
#1435
b0 ^
b11 [
15
#1440
05
#1445
b100 [
15
#1450
05
#1455
b101 [
15
#1460
05
#1465
1Z
b10001100 R
b110 T
b110 [
15
#1470
05
#1475
0Z
b10 O
b100 P
b0 [
15
#1480
05
#1485
b111 ,
b111 @
b111 E
b110 .
b110 =
b111 ^
b110 /
b110 W
1-
b1 [
15
#1490
05
#1495
b10 [
15
#1500
05
#1505
b111 _
0-
b11 [
15
#1510
05
#1515
b100 "
b100 D
b100 G
b110 $
b110 A
b110 %
b110 Y
1#
b100 [
15
#1520
05
#1525
b101 [
15
#1530
05
#1535
b100 ]
0#
b110 [
15
#1540
05
#1545
b11100 ]
b111 [
15
#1550
05
#1555
b1000 [
15
#1560
05
#1565
b1001 [
15
#1570
05
#1575
b1010 [
15
#1580
05
#1585
b1011 [
15
#1590
05
#1595
b10101000 (
b10101000 F
b10101000 \
b1100 [
15
#1600
05
#1605
b1101 [
15
#1610
05
#1615
1Z
b10101000 S
b111 U
b1110 [
15
#1620
05
#1625
b10101000 ^
b0 ]
b111 (
b111 F
b111 \
0I
b0 [
0Z
b100 O
b10 P
15
#1630
05
#1635
b10101000 (
b10101000 F
b10101000 \
b111 ]
b1 [
15
#1640
05
#1645
b10 [
15
#1650
05
#1655
b0 ^
b11 [
15
#1660
05
#1665
b100 [
15
#1670
05
#1675
b101 [
15
#1680
05
#1685
1Z
b10101000 R
b111 T
b110 [
15
#1690
05
#1695
0Z
b10 O
b100 P
b0 [
15
#1700
05
#1705
b1000 ,
b1000 @
b1000 E
b111 .
b111 =
b1000 ^
b111 /
b111 W
1-
b1 [
15
#1710
05
#1715
b10 [
15
#1720
05
#1725
b1000 _
0-
b11 [
15
#1730
05
#1735
b11 "
b11 D
b11 G
b111 $
b111 A
b111 %
b111 Y
1#
b100 [
15
#1740
05
#1745
b101 [
15
#1750
05
#1755
b11 ]
0#
b110 [
15
#1760
05
#1765
b11000 ]
b111 [
15
#1770
05
#1775
b1000 [
15
#1780
05
#1785
b1001 [
15
#1790
05
#1795
b1010 [
15
#1800
05
#1805
b1011 [
15
#1810
05
#1815
b11000000 (
b11000000 F
b11000000 \
b1100 [
15
#1820
05
#1825
b1101 [
15
#1830
05
#1835
1Z
b11000000 S
b1000 U
b1110 [
15
#1840
05
#1845
b11000000 ^
b0 ]
b1000 (
b1000 F
b1000 \
b0 [
0Z
b100 O
b10 P
15
#1850
05
#1855
b11000000 (
b11000000 F
b11000000 \
b1000 ]
b1 [
15
#1860
05
#1865
b10 [
15
#1870
05
#1875
b0 ^
b11 [
15
#1880
05
#1885
b100 [
15
#1890
05
#1895
b101 [
15
#1900
05
#1905
1Z
b11000000 R
b1000 T
b110 [
15
#1910
05
#1915
0Z
b10 O
b100 P
b0 [
15
#1920
05
#1925
b1001 ,
b1001 @
b1001 E
b1000 .
b1000 =
b1001 ^
b1000 /
b1000 W
1-
b1 [
15
#1930
05
#1935
b10 [
15
#1940
05
#1945
b1001 _
0-
b11 [
15
#1950
05
#1955
b10 "
b10 D
b10 G
b1000 $
b1000 A
b1000 %
b1000 Y
1#
b100 [
15
#1960
05
#1965
b101 [
15
#1970
05
#1975
b10 ]
0#
b110 [
15
#1980
05
#1985
b10010 ]
b111 [
15
#1990
05
#1995
b1000 [
15
#2000
05
#2005
b1001 [
15
#2010
05
#2015
b1010 [
15
#2020
05
#2025
b1011 [
15
#2030
05
#2035
b11010010 (
b11010010 F
b11010010 \
b1100 [
15
#2040
05
#2045
b1101 [
15
#2050
05
#2055
1Z
b11010010 S
b1001 U
b1110 [
15
#2060
05
#2065
b11010010 ^
b0 ]
b1001 (
b1001 F
b1001 \
0I
b0 [
0Z
b100 O
b10 P
15
#2070
05
#2075
b11010010 (
b11010010 F
b11010010 \
b1001 ]
b1 [
15
#2080
05
#2085
b10 [
15
#2090
05
#2095
b0 ^
b11 [
15
#2100
05
#2105
b100 [
15
#2110
05
#2115
b101 [
15
#2120
05
#2125
1Z
b11010010 R
b1001 T
b110 [
15
#2130
05
#2135
0Z
b10 O
b100 P
b0 [
15
#2140
05
#2145
b1010 ,
b1010 @
b1010 E
b1001 .
b1001 =
b1010 ^
b1001 /
b1001 W
1-
b1 [
15
#2150
05
#2155
b10 [
15
#2160
05
#2165
b1010 _
0-
b11 [
15
#2170
05
#2175
b1 "
b1 D
b1 G
b1001 $
b1001 A
b1001 %
b1001 Y
1#
b100 [
15
#2180
05
#2185
b101 [
15
#2190
05
#2195
b1 ]
0#
b110 [
15
#2200
05
#2205
b1010 ]
b111 [
15
#2210
05
#2215
b1000 [
15
#2220
05
#2225
b1001 [
15
#2230
05
#2235
b1010 [
15
#2240
05
#2245
b1011 [
15
#2250
05
#2255
b11011100 (
b11011100 F
b11011100 \
b1100 [
15
#2260
05
#2265
b1101 [
15
#2270
05
#2275
1Z
b11011100 S
b1010 U
b1110 [
15
#2280
05
#2285
b11011100 ^
b0 ]
b1010 (
b1010 F
b1010 \
b0 [
0Z
b100 O
b10 P
15
#2290
05
#2295
b11011100 (
b11011100 F
b11011100 \
b1010 ]
b1 [
15
#2300
05
#2305
b10 [
15
#2310
05
#2315
1I
b1 ^
b11 [
15
#2320
05
#2325
b100 [
15
#2330
05
#2335
b101 [
15
#2340
05
#2345
1Z
b11011100 R
b1010 T
b110 [
15
#2350
05
#2355
0I
0Z
b1 O
b100 P
b0 [
15
#2360
05
#2365
b1 [
15
#2370
05
#2375
1Z
b10 [
15
#2380
05
#2385
b0 [
0Z
1*
15
#2390
05
#2395
b1 [
15
#2400
05
#2405
1Z
b10 [
15
#2410
05
#2415
0Z
b0 [
15
#2420
05
#2425
b1 [
15
#2430
05
#2435
1Z
b10 [
15
#2440
05
#2445
b0 [
0Z
15
#2450
05
#2455
b1 [
15
#2460
05
#2465
1Z
b10 [
15
#2470
05
#2475
0Z
b0 [
15
#2480
05
#2485
b1 [
15
#2490
05
#2495
1Z
b10 [
15
#2500
05
#2505
b0 [
0Z
15
#2510
05
#2515
b1 [
15
#2520
05
#2525
1Z
b10 [
15
#2530
05
#2535
0Z
b0 [
15
#2540
05
#2545
b1 [
15
#2550
05
#2555
1Z
b10 [
15
#2560
05
#2565
b0 [
0Z
15
#2570
05
#2575
b1 [
15
#2580
05
#2585
1Z
b10 [
15
#2590
05
#2595
0Z
b0 [
15
#2600
05
#2605
b1 [
15
#2610
05
#2615
1Z
b10 [
15
#2620
05
#2625
b0 [
0Z
15
#2630
05
#2635
b1 [
15
#2640
05
#2645
1Z
b10 [
15
#2650
05
#2655
0Z
b0 [
15
#2660
05
#2665
b1 [
15
#2670
05
#2675
1Z
b10 [
15
#2680
05
#2685
b0 [
0Z
15
#2690
05
#2695
b1 [
15
#2700
05
#2705
1Z
b10 [
15
#2710
05
#2715
0Z
b0 [
15
#2720
05
#2725
b1 [
15
#2730
05
#2735
1Z
b10 [
15
#2740
05
#2745
b0 [
0Z
15
#2750
05
#2755
b1 [
15
#2760
05
#2765
1Z
b10 [
15
#2770
05
#2775
0Z
b0 [
15
#2780
05
#2785
b1 [
15
#2790
05
#2795
1Z
b10 [
15
#2800
05
#2805
b0 [
0Z
15
#2810
05
#2815
b1 [
15
#2820
05
#2825
1Z
b10 [
15
#2830
05
#2835
0Z
b0 [
15
#2840
05
#2845
b1 [
15
#2850
05
#2855
1Z
b10 [
15
#2860
05
#2865
b0 [
0Z
15
#2870
05
#2875
b1 [
15
#2880
05
#2885
1Z
b10 [
15
#2890
05
#2895
0Z
b0 [
15
#2900
05
#2905
b1 [
15
#2910
05
#2915
1Z
b10 [
15
#2920
05
#2925
b0 [
0Z
15
#2930
05
#2935
b1 [
15
#2940
05
#2945
1Z
b10 [
15
#2950
05
#2955
0Z
b0 [
15
#2960
05
#2965
b1 [
15
#2970
05
#2975
1Z
b10 [
15
#2980
05
#2985
b0 [
0Z
15
#2990
05
#2995
b1 [
15
#3000
05
#3005
1Z
b10 [
15
#3010
05
#3015
0Z
b0 [
15
#3020
05
#3025
b1 [
15
#3030
05
#3035
1Z
b10 [
15
#3040
05
#3045
b0 [
0Z
15
#3050
05
#3055
b1 [
15
#3060
05
#3065
1Z
b10 [
15
#3070
05
#3075
0Z
b0 [
15
#3080
05
#3085
b1 [
15
#3090
05
#3095
1Z
b10 [
15
#3100
05
#3105
b0 [
0Z
15
#3110
05
#3115
b1 [
15
#3120
05
#3125
1Z
b10 [
15
#3130
05
#3135
0Z
b0 [
15
#3140
05
#3145
b1 [
15
#3150
05
#3155
1Z
b10 [
15
#3160
05
#3165
b0 [
0Z
15
#3170
05
#3175
b1 [
15
#3180
05
#3185
1Z
b10 [
15
#3190
05
#3195
0Z
b0 [
15
#3200
05
#3205
b1 [
15
#3210
05
#3215
1Z
b10 [
15
#3220
05
#3225
b0 [
0Z
15
#3230
05
#3235
b1 [
15
#3240
05
#3245
1Z
b10 [
15
#3250
05
#3255
0Z
b0 [
15
#3260
05
#3265
b1 [
15
#3270
05
#3275
1Z
b10 [
15
#3280
05
#3285
b0 [
0Z
15
#3290
05
#3295
b1 [
15
#3300
05
#3305
1Z
b10 [
15
#3310
05
#3315
0Z
b0 [
15
#3320
05
#3325
b1 [
15
#3330
05
#3335
1Z
b10 [
15
#3340
05
#3345
b0 [
0Z
15
#3350
05
#3355
b1 [
15
#3360
05
#3365
1Z
b10 [
15
#3370
05
#3375
0Z
b0 [
15
#3380
05
#3385
b1 [
15
#3390
05
#3395
1Z
b10 [
15
#3400
05
#3405
b0 [
0Z
15
#3410
05
#3415
b1 [
15
#3420
05
#3425
1Z
b10 [
15
#3430
05
#3435
0Z
b0 [
15
#3440
05
#3445
b1 [
15
#3450
05
#3455
1Z
b10 [
15
#3460
05
#3465
b0 [
0Z
15
#3470
05
#3475
b1 [
15
#3480
05
#3485
1Z
b10 [
15
#3490
05
#3495
0Z
b0 [
15
#3500
05
#3505
b1 [
15
#3510
05
#3515
1Z
b10 [
15
#3520
05
#3525
b0 [
0Z
15
#3530
05
#3535
b1 [
15
#3540
05
#3545
1Z
b10 [
15
#3550
05
#3555
0Z
b0 [
15
#3560
05
#3565
b1 [
15
#3570
05
#3575
1Z
b10 [
15
#3580
05
#3585
b0 [
0Z
15
#3590
05
#3595
b1 [
15
#3600
05
#3605
1Z
b10 [
15
#3610
05
#3615
0Z
b0 [
15
#3620
05
#3625
b1 [
15
#3630
05
#3635
1Z
b10 [
15
#3640
05
#3645
b0 [
0Z
15
#3650
05
#3655
b1 [
15
#3660
05
#3665
1Z
b10 [
15
#3670
05
#3675
0Z
b0 [
15
#3680
05
#3685
b1 [
15
#3690
05
#3695
1Z
b10 [
15
#3700
05
#3705
b0 [
0Z
15
#3710
05
#3715
b1 [
15
#3720
05
#3725
1Z
b10 [
15
#3730
05
#3735
0Z
b0 [
15
#3740
05
#3745
b1 [
15
#3750
05
#3755
1Z
b10 [
15
#3760
05
#3765
b0 [
0Z
15
#3770
05
#3775
b1 [
15
#3780
05
#3785
1Z
b10 [
15
#3790
05
#3795
0Z
b0 [
15
#3800
05
#3805
b1 [
15
#3810
05
#3815
1Z
b10 [
15
#3820
05
#3825
b0 [
0Z
15
#3830
05
#3835
b1 [
15
#3840
05
#3845
1Z
b10 [
15
#3850
05
#3855
0Z
b0 [
15
#3860
05
#3865
b1 [
15
#3870
05
#3875
1Z
b10 [
15
#3880
05
#3885
b0 [
0Z
15
#3890
05
#3895
b1 [
15
#3900
05
#3905
1Z
b10 [
15
#3910
05
#3915
0Z
b0 [
15
#3920
05
#3925
b1 [
15
#3930
05
#3935
1Z
b10 [
15
#3940
05
#3945
b0 [
0Z
15
#3950
05
#3955
b1 [
15
#3960
05
#3965
1Z
b10 [
15
#3970
05
#3975
0Z
b0 [
15
#3980
05
#3985
b1 [
15
#3990
05
#3995
1Z
b10 [
15
#4000
05
#4005
b0 [
0Z
15
#4010
05
#4015
b1 [
15
#4020
05
#4025
1Z
b10 [
15
#4030
05
#4035
0Z
b0 [
15
#4040
05
#4045
b1 [
15
#4050
05
#4055
1Z
b10 [
15
#4060
05
#4065
b0 [
0Z
15
#4070
05
#4075
b1 [
15
#4080
05
#4085
1Z
b10 [
15
#4090
05
#4095
0Z
b0 [
15
#4100
05
#4105
b1 [
15
#4110
05
#4115
1Z
b10 [
15
#4120
05
#4125
b0 [
0Z
15
#4130
05
#4135
b1 [
15
#4140
05
#4145
1Z
b10 [
15
#4150
05
#4155
0Z
b0 [
15
#4160
05
#4165
b1 [
15
#4170
05
#4175
1Z
b10 [
15
#4180
05
#4185
b0 [
0Z
15
#4190
05
#4195
b1 [
15
#4200
05
#4205
1Z
b10 [
15
#4210
05
#4215
0Z
b0 [
15
#4220
05
#4225
b1 [
15
#4230
05
#4235
1Z
b10 [
15
#4240
05
#4245
b0 [
0Z
15
#4250
05
#4255
b1 [
15
#4260
05
#4265
1Z
b10 [
15
#4270
05
#4275
0Z
b0 [
15
#4280
05
#4285
b1 [
15
#4290
05
#4295
1Z
b10 [
15
#4300
05
#4305
b0 [
0Z
15
#4310
05
#4315
b1 [
15
#4320
05
#4325
1Z
b10 [
15
#4330
05
#4335
0Z
b0 [
15
#4340
05
#4345
b1 [
15
#4350
05
#4355
1Z
b10 [
15
#4360
05
#4365
b0 [
0Z
15
#4370
05
#4375
b1 [
15
#4380
05
#4385
1Z
b10 [
15
#4390
05
#4395
0Z
b0 [
15
#4400
05
#4405
b1 [
15
#4410
05
#4415
1Z
b10 [
15
#4420
05
#4425
b0 [
0Z
15
#4430
05
#4435
b1 [
15
#4440
05
#4445
1Z
b10 [
15
#4450
05
#4455
0Z
b0 [
15
#4460
05
#4465
b1 [
15
#4470
05
#4475
1Z
b10 [
15
#4480
05
#4485
b0 [
0Z
15
#4490
05
#4495
b1 [
15
#4500
05
#4505
1Z
b10 [
15
#4510
05
#4515
0Z
b0 [
15
#4520
05
#4525
b1 [
15
#4530
05
#4535
1Z
b10 [
15
#4540
05
#4545
b0 [
0Z
15
#4550
05
#4555
b1 [
15
#4560
05
#4565
1Z
b10 [
15
#4570
05
#4575
0Z
b0 [
15
#4580
05
#4585
b1 [
15
#4590
05
#4595
1Z
b10 [
15
#4600
05
#4605
b0 [
0Z
15
#4610
05
#4615
b1 [
15
#4620
05
#4625
1Z
b10 [
15
#4630
05
#4635
0Z
b0 [
15
#4640
05
#4645
b1 [
15
#4650
05
#4655
1Z
b10 [
15
#4660
05
#4665
b0 [
0Z
15
#4670
05
#4675
b1 [
15
#4680
05
#4685
1Z
b10 [
15
#4690
05
#4695
0Z
b0 [
15
#4700
05
#4705
b1 [
15
#4710
05
#4715
1Z
b10 [
15
#4720
05
#4725
b0 [
0Z
15
#4730
05
#4735
b1 [
15
#4740
05
#4745
1Z
b10 [
15
#4750
05
#4755
0Z
b0 [
15
#4760
05
#4765
b1 [
15
#4770
05
#4775
1Z
b10 [
15
#4780
05
#4785
b0 [
0Z
15
#4790
05
#4795
b1 [
15
#4800
05
#4805
1Z
b10 [
15
#4810
05
#4815
0Z
b0 [
15
#4820
05
#4825
b1 [
15
#4830
05
#4835
1Z
b10 [
15
#4840
05
#4845
b0 [
0Z
15
#4850
05
#4855
b1 [
15
#4860
05
#4865
1Z
b10 [
15
#4870
05
#4875
0Z
b0 [
15
#4880
05
#4885
b1 [
15
#4890
05
#4895
1Z
b10 [
15
#4900
05
#4905
b0 [
0Z
15
#4910
05
#4915
b1 [
15
#4920
05
#4925
1Z
b10 [
15
#4930
05
#4935
0Z
b0 [
15
#4940
05
#4945
b1 [
15
#4950
05
#4955
1Z
b10 [
15
#4960
05
#4965
b0 [
0Z
15
#4970
05
#4975
b1 [
15
#4980
05
#4985
1Z
b10 [
15
#4990
05
#4995
0Z
b0 [
15
