PJ1/output/RTL/wave/gcd.vcd
$date
	Wed Apr 16 00:51:17 2025
$end
$version
	Icarus Verilog
$end
$timescale
	1ps
$end
$scope module tb_gcd $end
$var wire 32 ! ap_return [31:0] $end
$var wire 1 " ap_idle $end
$var wire 1 # ap_done $end
$var parameter 32 $ END_TIME $end
$var reg 32 % a [31:0] $end
$var reg 1 & ap_clk $end
$var reg 1 ' ap_rst_n $end
$var reg 1 ( ap_start $end
$var reg 32 ) b [31:0] $end
$scope module test_gcd $end
$var wire 32 * a [31:0] $end
$var wire 1 & ap_clk $end
$var wire 32 + ap_return [31:0] $end
$var wire 1 ' ap_rst_n $end
$var wire 1 ( ap_start $end
$var wire 32 , b [31:0] $end
$var wire 1 - cond $end
$var parameter 6 . state_0 $end
$var parameter 6 / state_cal $end
$var parameter 6 0 state_exchange $end
$var parameter 6 1 state_fiction_head $end
$var parameter 6 2 state_ret $end
$var parameter 6 3 state_start $end
$var reg 6 4 CurrentState [5:0] $end
$var reg 6 5 LastState [5:0] $end
$var reg 32 6 Mem_a1 [31:0] $end
$var reg 32 7 Mem_b1 [31:0] $end
$var reg 32 8 Mem_c [31:0] $end
$var reg 32 9 Mem_d [31:0] $end
$var reg 32 : Mem_divisor [31:0] $end
$var reg 32 ; Mem_remainder [31:0] $end
$var reg 1 # ap_done $end
$var reg 1 " ap_idle $end
$var reg 1 < branch_ready $end
$var reg 32 = counter [31:0] $end
$var reg 32 > reg_1 [31:0] $end
$var reg 32 ? reg_2 [31:0] $end
$var reg 32 @ reg_3 [31:0] $end
$var reg 32 A reg_4 [31:0] $end
$upscope $end
$upscope $end
$enddefinitions $end
$comment Show the parameter values. $end
$dumpall
b1000 3
b1 2
b100000 1
b10 0
b100 /
b10000 .
b11111010000 $
$end
#0
$dumpvars
bx A
bx @
bx ?
bx >
b0 =
x<
bx ;
bx :
bx 9
bx 8
bx 7
bx 6
b100000 5
b100000 4
0-
b111000 ,
bx +
b11000 *
b111000 )
1(
0'
0&
b11000 %
0#
x"
bx !
$end
#5000
1&
#10000
0&
1'
#15000
b1 =
1&
#20000
0&
#25000
1<
b0 =
1&
#30000
0&
#35000
b111000 !
b111000 +
b111000 >
b11000 ?
0<
b10000 4
b1 =
1&
#40000
0&
#45000
1<
b111000 9
b11000 8
b10 =
1&
#50000
0&
#55000
b111000 ?
bx !
bx +
bx >
b11000 @
0-
0<
b1000 4
b10000 5
b0 =
1&
#60000
0&
#65000
b11000 !
b11000 +
b11000 >
b1 =
1&
#70000
0&
#75000
b10 =
1&
#80000
0&
#85000
b0 @
b11 =
1&
#90000
0&
#95000
b100 =
1&
#100000
0&
#105000
b101 =
1&
#110000
0&
#115000
1<
b11000 6
b111000 7
b110 =
1&
#120000
0&
#125000
b0 =
0<
b10 4
b1000 5
1&
#130000
0&
#135000
b1 =
1&
#140000
0&
#145000
1<
b10 =
1&
#150000
0&
#155000
0<
b100 4
b10 5
b0 =
1&
#160000
0&
#165000
b1 =
1&
#170000
0&
#175000
b10 =
1&
#180000
0&
#185000
b100000 ?
b11 =
1&
#190000
0&
#195000
b100 =
1&
#200000
0&
#205000
b101 =
1&
#210000
0&
#215000
b110 =
1&
#220000
0&
#225000
b111 =
1&
#230000
0&
#235000
1<
b100000 ;
b11000 :
b1000 =
1&
#240000
0&
#245000
b100000 A
b111000 ?
b11000 @
b0 =
0<
b1000 4
b100 5
1&
#250000
0&
#255000
b100000 ?
b1 =
1&
#260000
0&
#265000
b10 =
1&
#270000
0&
#275000
b0 @
b11 =
1&
#280000
0&
#285000
b100 =
1&
#290000
0&
#295000
b101 =
1&
#300000
0&
#305000
1<
b100000 7
b110 =
1&
#310000
0&
#315000
0<
b10 4
b1000 5
b0 =
1&
#320000
0&
#325000
b1 =
1&
#330000
0&
#335000
1<
b10 =
1&
#340000
0&
#345000
b0 =
0<
b100 4
b10 5
1&
#350000
0&
#355000
b1 =
1&
#360000
0&
#365000
b10 =
1&
#370000
0&
#375000
b1000 ?
b11 =
1&
#380000
0&
#385000
b100 =
1&
#390000
0&
#395000
b101 =
1&
#400000
0&
#405000
b110 =
1&
#410000
0&
#415000
b111 =
1&
#420000
0&
#425000
1<
b1000 ;
b1000 =
1&
#430000
0&
#435000
b1000 A
b111000 ?
b11000 @
0<
b1000 4
b100 5
b0 =
1&
#440000
0&
#445000
b1000 ?
b1 =
1&
#450000
0&
#455000
b10 =
1&
#460000
0&
#465000
1-
b1 @
b11 =
1&
#470000
0&
#475000
b100 =
1&
#480000
0&
#485000
b101 =
1&
#490000
0&
#495000
1<
b1000 7
b110 =
1&
#500000
0&
#505000
b0 =
0<
b100 4
b1000 5
1&
#510000
0&
#515000
b11000 ?
b1000 !
b1000 +
b1000 >
b1 =
1&
#520000
0&
#525000
b10 =
1&
#530000
0&
#535000
b10000 ?
b11 =
1&
#540000
0&
#545000
b100 =
1&
#550000
0&
#555000
0-
b0 @
b101 =
1&
#560000
0&
#565000
b110 =
1&
#570000
0&
#575000
b111 =
1&
#580000
0&
#585000
1<
b10000 ;
b1000 :
b1000 =
1&
#590000
0&
#595000
b10000 A
b111000 ?
b11000 @
0<
b1000 4
b100 5
b0 =
1&
#600000
0&
#605000
b10000 ?
b1 =
1&
#610000
0&
#615000
b10 =
1&
#620000
0&
#625000
b0 @
b11 =
1&
#630000
0&
#635000
b100 =
1&
#640000
0&
#645000
b101 =
1&
#650000
0&
#655000
1<
b1000 6
b10000 7
b110 =
1&
#660000
0&
#665000
b0 =
0<
b10 4
b1000 5
1&
#670000
0&
#675000
b1 =
1&
#680000
0&
#685000
1<
b10 =
1&
#690000
0&
#695000
0<
b100 4
b10 5
b0 =
1&
#700000
0&
#705000
b1 =
1&
#710000
0&
#715000
b10 =
1&
#720000
0&
#725000
b1000 ?
b11 =
1&
#730000
0&
#735000
b100 =
1&
#740000
0&
#745000
b101 =
1&
#750000
0&
#755000
b110 =
1&
#760000
0&
#765000
b111 =
1&
#770000
0&
#775000
1<
b1000 ;
b1000 =
1&
#780000
0&
#785000
b1000 A
b111000 ?
b11000 @
b0 =
0<
b1000 4
b100 5
1&
#790000
0&
#795000
b1000 ?
b1 =
1&
#800000
0&
#805000
b10 =
1&
#810000
0&
#815000
1-
b1 @
b11 =
1&
#820000
0&
#825000
b100 =
1&
#830000
0&
#835000
b101 =
1&
#840000
0&
#845000
1<
b1000 7
b110 =
1&
#850000
0&
#855000
0<
b100 4
b1000 5
b0 =
1&
#860000
0&
#865000
b1 =
1&
#870000
0&
#875000
b10 =
1&
#880000
0&
#885000
b0 ?
b11 =
1&
#890000
0&
#895000
b100 =
1&
#900000
0&
#905000
b101 =
1&
#910000
0&
#915000
b110 =
1&
#920000
0&
#925000
b111 =
1&
#930000
0&
#935000
1<
b0 ;
b1000 =
1&
#940000
0&
#945000
0-
b0 =
0<
b1 4
b100 5
1&
#950000
0&
#955000
b1 =
1&
#960000
0&
#965000
1<
b10 =
1&
#970000
0&
#975000
0<
1#
b0 =
1&
#980000
0&
#985000
b1 =
1&
#990000
0&
#995000
1<
b10 =
1&
#1000000
0&
#1005000
b0 =
0<
1&
#1010000
0&
#1015000
b1 =
1&
#1020000
0&
#1025000
1<
b10 =
1&
#1030000
0&
#1035000
0<
b0 =
1&
#1040000
0&
#1045000
b1 =
1&
#1050000
0&
#1055000
1<
b10 =
1&
#1060000
0&
#1065000
b0 =
0<
1&
#1070000
0&
#1075000
b1 =
1&
#1080000
0&
#1085000
1<
b10 =
1&
#1090000
0&
#1095000
0<
b0 =
1&
#1100000
0&
#1105000
b1 =
1&
#1110000
0&
#1115000
1<
b10 =
1&
#1120000
0&
#1125000
b0 =
0<
1&
#1130000
0&
#1135000
b1 =
1&
#1140000
0&
#1145000
1<
b10 =
1&
#1150000
0&
#1155000
0<
b0 =
1&
#1160000
0&
#1165000
b1 =
1&
#1170000
0&
#1175000
1<
b10 =
1&
#1180000
0&
#1185000
b0 =
0<
1&
#1190000
0&
#1195000
b1 =
1&
#1200000
0&
#1205000
1<
b10 =
1&
#1210000
0&
#1215000
0<
b0 =
1&
#1220000
0&
#1225000
b1 =
1&
#1230000
0&
#1235000
1<
b10 =
1&
#1240000
0&
#1245000
b0 =
0<
1&
#1250000
0&
#1255000
b1 =
1&
#1260000
0&
#1265000
1<
b10 =
1&
#1270000
0&
#1275000
0<
b0 =
1&
#1280000
0&
#1285000
b1 =
1&
#1290000
0&
#1295000
1<
b10 =
1&
#1300000
0&
#1305000
b0 =
0<
1&
#1310000
0&
#1315000
b1 =
1&
#1320000
0&
#1325000
1<
b10 =
1&
#1330000
0&
#1335000
0<
b0 =
1&
#1340000
0&
#1345000
b1 =
1&
#1350000
0&
#1355000
1<
b10 =
1&
#1360000
0&
#1365000
b0 =
0<
1&
#1370000
0&
#1375000
b1 =
1&
#1380000
0&
#1385000
1<
b10 =
1&
#1390000
0&
#1395000
0<
b0 =
1&
#1400000
0&
#1405000
b1 =
1&
#1410000
0&
#1415000
1<
b10 =
1&
#1420000
0&
#1425000
b0 =
0<
1&
#1430000
0&
#1435000
b1 =
1&
#1440000
0&
#1445000
1<
b10 =
1&
#1450000
0&
#1455000
0<
b0 =
1&
#1460000
0&
#1465000
b1 =
1&
#1470000
0&
#1475000
1<
b10 =
1&
#1480000
0&
#1485000
b0 =
0<
1&
#1490000
0&
#1495000
b1 =
1&
#1500000
0&
#1505000
1<
b10 =
1&
#1510000
0&
#1515000
0<
b0 =
1&
#1520000
0&
#1525000
b1 =
1&
#1530000
0&
#1535000
1<
b10 =
1&
#1540000
0&
#1545000
b0 =
0<
1&
#1550000
0&
#1555000
b1 =
1&
#1560000
0&
#1565000
1<
b10 =
1&
#1570000
0&
#1575000
0<
b0 =
1&
#1580000
0&
#1585000
b1 =
1&
#1590000
0&
#1595000
1<
b10 =
1&
#1600000
0&
#1605000
b0 =
0<
1&
#1610000
0&
#1615000
b1 =
1&
#1620000
0&
#1625000
1<
b10 =
1&
#1630000
0&
#1635000
0<
b0 =
1&
#1640000
0&
#1645000
b1 =
1&
#1650000
0&
#1655000
1<
b10 =
1&
#1660000
0&
#1665000
b0 =
0<
1&
#1670000
0&
#1675000
b1 =
1&
#1680000
0&
#1685000
1<
b10 =
1&
#1690000
0&
#1695000
0<
b0 =
1&
#1700000
0&
#1705000
b1 =
1&
#1710000
0&
#1715000
1<
b10 =
1&
#1720000
0&
#1725000
b0 =
0<
1&
#1730000
0&
#1735000
b1 =
1&
#1740000
0&
#1745000
1<
b10 =
1&
#1750000
0&
#1755000
0<
b0 =
1&
#1760000
0&
#1765000
b1 =
1&
#1770000
0&
#1775000
1<
b10 =
1&
#1780000
0&
#1785000
b0 =
0<
1&
#1790000
0&
#1795000
b1 =
1&
#1800000
0&
#1805000
1<
b10 =
1&
#1810000
0&
#1815000
0<
b0 =
1&
#1820000
0&
#1825000
b1 =
1&
#1830000
0&
#1835000
1<
b10 =
1&
#1840000
0&
#1845000
b0 =
0<
1&
#1850000
0&
#1855000
b1 =
1&
#1860000
0&
#1865000
1<
b10 =
1&
#1870000
0&
#1875000
0<
b0 =
1&
#1880000
0&
#1885000
b1 =
1&
#1890000
0&
#1895000
1<
b10 =
1&
#1900000
0&
#1905000
b0 =
0<
1&
#1910000
0&
#1915000
b1 =
1&
#1920000
0&
#1925000
1<
b10 =
1&
#1930000
0&
#1935000
0<
b0 =
1&
#1940000
0&
#1945000
b1 =
1&
#1950000
0&
#1955000
1<
b10 =
1&
#1960000
0&
#1965000
b0 =
0<
1&
#1970000
0&
#1975000
b1 =
1&
#1980000
0&
#1985000
1<
b10 =
1&
#1990000
0&
#1995000
0<
b0 =
1&
