PJ1/output/RTL/wave/Sum.vcd
$date
	Wed Apr 16 00:54:41 2025
$end
$version
	Icarus Verilog
$end
$timescale
	1ps
$end
$scope module tb_Sum $end
$var wire 32 ! b_address1 [31:0] $end
$var wire 1 " b_we0 $end
$var wire 32 # b_q0 [31:0] $end
$var wire 1 $ b_ce0 $end
$var wire 32 % b_address0 [31:0] $end
$var wire 32 & b_ad1 [31:0] $end
$var wire 32 ' b_ad0 [31:0] $end
$var wire 32 ( ap_return [31:0] $end
$var wire 1 ) ap_idle $end
$var wire 1 * ap_done $end
$var wire 1 + a_we0 $end
$var wire 32 , a_q0 [31:0] $end
$var wire 1 - a_ce0 $end
$var wire 32 . a_address1 [31:0] $end
$var wire 32 / a_address0 [31:0] $end
$var wire 32 0 a_ad1 [31:0] $end
$var wire 32 1 a_ad0 [31:0] $end
$var parameter 32 2 END_TIME $end
$var reg 32 3 aadr [31:0] $end
$var reg 32 4 ad [31:0] $end
$var reg 1 5 ap_clk $end
$var reg 1 6 ap_rst_n $end
$var reg 1 7 ap_start $end
$var reg 32 8 bd [31:0] $end
$var reg 32 9 n [31:0] $end
$var reg 1 : wa $end
$var reg 1 ; wb $end
$scope module a $end
$var wire 32 < address0 [31:0] $end
$var wire 32 = d0 [31:0] $end
$var wire 1 > we0 $end
$var wire 1 - ce0 $end
$var reg 32 ? q0 [31:0] $end
$upscope $end
$scope module b $end
$var wire 32 @ address0 [31:0] $end
$var wire 32 A d0 [31:0] $end
$var wire 1 B we0 $end
$var wire 1 $ ce0 $end
$var reg 32 C q0 [31:0] $end
$upscope $end
$scope module sum $end
$var wire 32 D a_q0 [31:0] $end
$var wire 1 5 ap_clk $end
$var wire 32 E ap_return [31:0] $end
$var wire 1 6 ap_rst_n $end
$var wire 1 7 ap_start $end
$var wire 32 F b_q0 [31:0] $end
$var wire 32 G n [31:0] $end
$var wire 1 H cond $end
$var parameter 5 I state_0 $end
$var parameter 5 J state_calc $end
$var parameter 5 K state_fiction_head $end
$var parameter 5 L state_ret $end
$var parameter 5 M state_start $end
$var reg 5 N CurrentState [4:0] $end
$var reg 5 O LastState [4:0] $end
$var reg 32 P Mem_c [31:0] $end
$var reg 32 Q Mem_i [31:0] $end
$var reg 32 R Mem_i_inc [31:0] $end
$var reg 32 S Mem_sum [31:0] $end
$var reg 32 T Mem_temp [31:0] $end
$var reg 32 U a_ad0 [31:0] $end
$var reg 32 V a_address0 [31:0] $end
$var reg 1 - a_ce0 $end
$var reg 1 + a_we0 $end
$var reg 1 * ap_done $end
$var reg 1 ) ap_idle $end
$var reg 32 W b_ad0 [31:0] $end
$var reg 32 X b_address0 [31:0] $end
$var reg 1 $ b_ce0 $end
$var reg 1 " b_we0 $end
$var reg 1 Y branch_ready $end
$var reg 32 Z counter [31:0] $end
$var reg 32 [ reg_1 [31:0] $end
$var reg 32 \ reg_2 [31:0] $end
$var reg 32 ] reg_3 [31:0] $end
$var reg 32 ^ reg_4 [31:0] $end
$upscope $end
$upscope $end
$enddefinitions $end
$comment Show the parameter values. $end
$dumpall
b100 M
b1 L
b10000 K
b10 J
b1000 I
b1001110001000 2
$end
#0
$dumpvars
bx ^
bx ]
bx \
bx [
b0 Z
xY
bx X
bx W
bx V
bx U
bx T
bx S
bx R
bx Q
bx P
b10000 O
b10000 N
0H
bx G
bx F
bx E
bx D
bx C
1B
bx A
bx @
bx ?
1>
bx =
bx <
1;
1:
bx 9
bx 8
07
06
05
bx 4
bx 3
bx 1
bx 0
bx /
bx .
x-
bx ,
x+
0*
x)
bx (
bx '
bx &
bx %
x$
bx #
x"
bx !
$end
#2000
b1 0
b1 =
b0 .
b0 <
b1 4
b0 3
#4000
b10 0
b10 =
b1 .
b1 <
b10 4
b1 3
#5000
15
#6000
b11 0
b11 =
b10 .
b10 <
b11 4
b10 3
#8000
b100 0
b100 =
b11 .
b11 <
b100 4
b11 3
#10000
b101 0
b101 =
b100 .
b100 <
b101 4
b100 3
05
#12000
b110 0
b110 =
b101 .
b101 <
b110 4
b101 3
#14000
b111 0
b111 =
b110 .
b110 <
b111 4
b110 3
#15000
15
#16000
b1000 0
b1000 =
b111 .
b111 <
b1000 4
b111 3
#18000
b1001 0
b1001 =
b1000 .
b1000 <
b1001 4
b1000 3
#20000
b1010 0
b1010 =
b1001 .
b1001 <
b1010 4
b1001 3
05
#25000
15
#30000
05
#35000
15
#40000
bx 0
bx =
bx .
bx <
xB
x>
05
b1010 9
b1010 G
16
17
0;
0:
#45000
b1 Z
15
#50000
05
#55000
1Y
b0 Z
15
#60000
05
#65000
b0 (
b0 E
b0 [
b1 Z
0Y
b1000 N
15
#70000
05
#75000
1Y
b0 P
b10 Z
15
#80000
05
#85000
b0 \
bx (
bx E
bx [
xH
b0 Z
0Y
b100 N
b1000 O
15
#90000
05
#95000
b0 (
b0 E
b0 [
b1 Z
15
#100000
05
#105000
b10 Z
15
#110000
05
#115000
0H
b0 ]
b11 Z
15
#120000
05
#125000
b100 Z
15
#130000
05
#135000
b101 Z
15
#140000
05
#145000
1Y
b0 S
b0 Q
b110 Z
15
#150000
05
#155000
0Y
b10 N
b100 O
b0 Z
15
#160000
05
#165000
b1 ,
b1 ?
b1 D
b0 .
b0 <
b1 ]
b0 /
b0 V
1-
b1 Z
15
#170000
05
#175000
b10 Z
15
#180000
05
#185000
b1 ^
0-
b11 Z
15
#190000
05
#195000
b1 \
b100 Z
15
#200000
05
#205000
b101 Z
15
#210000
05
#215000
b1 &
b1 A
1B
b1 '
b1 W
b0 !
b0 @
b0 %
b0 X
1"
b110 Z
15
#220000
05
#225000
b111 Z
15
#230000
05
#235000
0B
0"
b1000 Z
15
#240000
05
#245000
1Y
b1 T
b1 R
b1001 Z
15
#250000
05
#255000
b0 \
b1 (
b1 E
b1 [
1H
0Y
b100 N
b10 O
b0 Z
15
#260000
05
#265000
b1 \
b1 Z
15
#270000
05
#275000
b10 Z
15
#280000
05
#285000
0H
b0 ]
b11 Z
15
#290000
05
#295000
b100 Z
15
#300000
05
#305000
b101 Z
15
#310000
05
#315000
1Y
b1 S
b1 Q
b110 Z
15
#320000
05
#325000
b0 Z
0Y
b10 N
b100 O
15
#330000
05
#335000
b10 ,
b10 ?
b10 D
b1 .
b1 <
b10 ]
b1 /
b1 V
1-
b1 Z
15
#340000
05
#345000
b10 Z
15
#350000
05
#355000
b10 ^
0-
b11 Z
15
#360000
05
#365000
b11 \
b100 Z
15
#370000
05
#375000
b101 Z
15
#380000
05
#385000
b11 &
b11 A
1B
b11 '
b11 W
b1 !
b1 @
b1 %
b1 X
1"
b110 Z
15
#390000
05
#395000
b111 Z
15
#400000
05
#405000
0B
0"
b1000 Z
15
#410000
05
#415000
1Y
b11 T
b10 R
b1001 Z
15
#420000
05
#425000
1H
b11 ]
b0 \
b10 (
b10 E
b10 [
b0 Z
0Y
b100 N
b10 O
15
#430000
05
#435000
b11 (
b11 E
b11 [
b10 \
b1 Z
15
#440000
05
#445000
b10 Z
15
#450000
05
#455000
0H
b0 ]
b11 Z
15
#460000
05
#465000
b100 Z
15
#470000
05
#475000
b101 Z
15
#480000
05
#485000
1Y
b11 S
b10 Q
b110 Z
15
#490000
05
#495000
b11 \
b10 (
b10 E
b10 [
0Y
b10 N
b100 O
b0 Z
15
#500000
05
#505000
b11 ,
b11 ?
b11 D
b10 .
b10 <
b11 ]
b10 /
b10 V
1-
b1 Z
15
#510000
05
#515000
b10 Z
15
#520000
05
#525000
b11 ^
0-
b11 Z
15
#530000
05
#535000
b110 \
b100 Z
15
#540000
05
#545000
b101 Z
15
#550000
05
#555000
b110 &
b110 A
1B
b110 '
b110 W
b10 !
b10 @
b10 %
b10 X
1"
b110 Z
15
#560000
05
#565000
b111 Z
15
#570000
05
#575000
0B
0"
b1000 Z
15
#580000
05
#585000
1Y
b110 T
b11 R
b1001 Z
15
#590000
05
#595000
b110 ]
b0 \
b11 (
b11 E
b11 [
0H
0Y
b100 N
b10 O
b0 Z
15
#600000
05
#605000
b110 (
b110 E
b110 [
b11 \
b1 Z
15
#610000
05
#615000
b10 Z
15
#620000
05
#625000
b0 ]
b11 Z
15
#630000
05
#635000
b100 Z
15
#640000
05
#645000
b101 Z
15
#650000
05
#655000
1Y
b110 S
b11 Q
b110 Z
15
#660000
05
#665000
b110 \
b11 (
b11 E
b11 [
b0 Z
0Y
b10 N
b100 O
15
#670000
05
#675000
b100 ,
b100 ?
b100 D
b11 .
b11 <
b100 ]
b11 /
b11 V
1-
b1 Z
15
#680000
05
#685000
b10 Z
15
#690000
05
#695000
b100 ^
0-
b11 Z
15
#700000
05
#705000
b1010 \
b100 Z
15
#710000
05
#715000
b101 Z
15
#720000
05
#725000
b1010 &
b1010 A
1B
b1010 '
b1010 W
b11 !
b11 @
b11 %
b11 X
1"
b110 Z
15
#730000
05
#735000
b111 Z
15
#740000
05
#745000
0B
0"
b1000 Z
15
#750000
05
#755000
1Y
b1010 T
b100 R
b1001 Z
15
#760000
05
#765000
b1010 ]
b0 \
b100 (
b100 E
b100 [
b0 Z
0Y
b100 N
b10 O
15
#770000
05
#775000
b1010 (
b1010 E
b1010 [
b100 \
b1 Z
15
#780000
05
#785000
b10 Z
15
#790000
05
#795000
b0 ]
b11 Z
15
#800000
05
#805000
b100 Z
15
#810000
05
#815000
b101 Z
15
#820000
05
#825000
1Y
b1010 S
b100 Q
b110 Z
15
#830000
05
#835000
b1010 \
b100 (
b100 E
b100 [
0Y
b10 N
b100 O
b0 Z
15
#840000
05
#845000
b101 ,
b101 ?
b101 D
b100 .
b100 <
b101 ]
b100 /
b100 V
1-
b1 Z
15
#850000
05
#855000
b10 Z
15
#860000
05
#865000
b101 ^
0-
b11 Z
15
#870000
05
#875000
b1111 \
b100 Z
15
#880000
05
#885000
b101 Z
15
#890000
05
#895000
b1111 &
b1111 A
1B
b1111 '
b1111 W
b100 !
b100 @
b100 %
b100 X
1"
b110 Z
15
#900000
05
#905000
b111 Z
15
#910000
05
#915000
0B
0"
b1000 Z
15
#920000
05
#925000
1Y
b1111 T
b101 R
b1001 Z
15
#930000
05
#935000
b1111 ]
b0 \
b101 (
b101 E
b101 [
1H
0Y
b100 N
b10 O
b0 Z
15
#940000
05
#945000
b1111 (
b1111 E
b1111 [
b101 \
b1 Z
15
#950000
05
#955000
b10 Z
15
#960000
05
#965000
0H
b0 ]
b11 Z
15
#970000
05
#975000
b100 Z
15
#980000
05
#985000
b101 Z
15
#990000
05
#995000
1Y
b1111 S
b101 Q
b110 Z
15
#1000000
05
#1005000
b1111 \
b101 (
b101 E
b101 [
b0 Z
0Y
b10 N
b100 O
15
#1010000
05
#1015000
b110 ,
b110 ?
b110 D
b101 .
b101 <
b110 ]
b101 /
b101 V
1-
b1 Z
15
#1020000
05
#1025000
b10 Z
15
#1030000
05
#1035000
b110 ^
0-
b11 Z
15
#1040000
05
#1045000
b10101 \
b100 Z
15
#1050000
05
#1055000
b101 Z
15
#1060000
05
#1065000
b10101 &
b10101 A
1B
b10101 '
b10101 W
b101 !
b101 @
b101 %
b101 X
1"
b110 Z
15
#1070000
05
#1075000
b111 Z
15
#1080000
05
#1085000
0B
0"
b1000 Z
15
#1090000
05
#1095000
1Y
b10101 T
b110 R
b1001 Z
15
#1100000
05
#1105000
1H
b10101 ]
b0 \
b110 (
b110 E
b110 [
b0 Z
0Y
b100 N
b10 O
15
#1110000
05
#1115000
b10101 (
b10101 E
b10101 [
b110 \
b1 Z
15
#1120000
05
#1125000
b10 Z
15
#1130000
05
#1135000
0H
b0 ]
b11 Z
15
#1140000
05
#1145000
b100 Z
15
#1150000
05
#1155000
b101 Z
15
#1160000
05
#1165000
1Y
b10101 S
b110 Q
b110 Z
15
#1170000
05
#1175000
b10101 \
b110 (
b110 E
b110 [
0Y
b10 N
b100 O
b0 Z
15
#1180000
05
#1185000
b111 ,
b111 ?
b111 D
b110 .
b110 <
b111 ]
b110 /
b110 V
1-
b1 Z
15
#1190000
05
#1195000
b10 Z
15
#1200000
05
#1205000
b111 ^
0-
b11 Z
15
#1210000
05
#1215000
b11100 \
b100 Z
15
#1220000
05
#1225000
b101 Z
15
#1230000
05
#1235000
b11100 &
b11100 A
1B
b11100 '
b11100 W
b110 !
b110 @
b110 %
b110 X
1"
b110 Z
15
#1240000
05
#1245000
b111 Z
15
#1250000
05
#1255000
0B
0"
b1000 Z
15
#1260000
05
#1265000
1Y
b11100 T
b111 R
b1001 Z
15
#1270000
05
#1275000
b11100 ]
b0 \
b111 (
b111 E
b111 [
0H
0Y
b100 N
b10 O
b0 Z
15
#1280000
05
#1285000
b11100 (
b11100 E
b11100 [
b111 \
b1 Z
15
#1290000
05
#1295000
b10 Z
15
#1300000
05
#1305000
b0 ]
b11 Z
15
#1310000
05
#1315000
b100 Z
15
#1320000
05
#1325000
b101 Z
15
#1330000
05
#1335000
1Y
b11100 S
b111 Q
b110 Z
15
#1340000
05
#1345000
b11100 \
b111 (
b111 E
b111 [
b0 Z
0Y
b10 N
b100 O
15
#1350000
05
#1355000
b1000 ,
b1000 ?
b1000 D
b111 .
b111 <
b1000 ]
b111 /
b111 V
1-
b1 Z
15
#1360000
05
#1365000
b10 Z
15
#1370000
05
#1375000
b1000 ^
0-
b11 Z
15
#1380000
05
#1385000
b100100 \
b100 Z
15
#1390000
05
#1395000
b101 Z
15
#1400000
05
#1405000
b100100 &
b100100 A
1B
b100100 '
b100100 W
b111 !
b111 @
b111 %
b111 X
1"
b110 Z
15
#1410000
05
#1415000
b111 Z
15
#1420000
05
#1425000
0B
0"
b1000 Z
15
#1430000
05
#1435000
1Y
b100100 T
b1000 R
b1001 Z
15
#1440000
05
#1445000
b100100 ]
b0 \
b1000 (
b1000 E
b1000 [
b0 Z
0Y
b100 N
b10 O
15
#1450000
05
#1455000
b100100 (
b100100 E
b100100 [
b1000 \
b1 Z
15
#1460000
05
#1465000
b10 Z
15
#1470000
05
#1475000
b0 ]
b11 Z
15
#1480000
05
#1485000
b100 Z
15
#1490000
05
#1495000
b101 Z
15
#1500000
05
#1505000
1Y
b100100 S
b1000 Q
b110 Z
15
#1510000
05
#1515000
b100100 \
b1000 (
b1000 E
b1000 [
0Y
b10 N
b100 O
b0 Z
15
#1520000
05
#1525000
b1001 ,
b1001 ?
b1001 D
b1000 .
b1000 <
b1001 ]
b1000 /
b1000 V
1-
b1 Z
15
#1530000
05
#1535000
b10 Z
15
#1540000
05
#1545000
b1001 ^
0-
b11 Z
15
#1550000
05
#1555000
b101101 \
b100 Z
15
#1560000
05
#1565000
b101 Z
15
#1570000
05
#1575000
b101101 &
b101101 A
1B
b101101 '
b101101 W
b1000 !
b1000 @
b1000 %
b1000 X
1"
b110 Z
15
#1580000
05
#1585000
b111 Z
15
#1590000
05
#1595000
0B
0"
b1000 Z
15
#1600000
05
#1605000
1Y
b101101 T
b1001 R
b1001 Z
15
#1610000
05
#1615000
b101101 ]
b0 \
b1001 (
b1001 E
b1001 [
1H
0Y
b100 N
b10 O
b0 Z
15
#1620000
05
#1625000
b101101 (
b101101 E
b101101 [
b1001 \
b1 Z
15
#1630000
05
#1635000
b10 Z
15
#1640000
05
#1645000
0H
b0 ]
b11 Z
15
#1650000
05
#1655000
b100 Z
15
#1660000
05
#1665000
b101 Z
15
#1670000
05
#1675000
1Y
b101101 S
b1001 Q
b110 Z
15
#1680000
05
#1685000
b101101 \
b1001 (
b1001 E
b1001 [
b0 Z
0Y
b10 N
b100 O
15
#1690000
05
#1695000
b1010 ,
b1010 ?
b1010 D
b1001 .
b1001 <
b1010 ]
b1001 /
b1001 V
1-
b1 Z
15
#1700000
05
#1705000
b10 Z
15
#1710000
05
#1715000
b1010 ^
0-
b11 Z
15
#1720000
05
#1725000
b110111 \
b100 Z
15
#1730000
05
#1735000
b101 Z
15
#1740000
05
#1745000
b110111 &
b110111 A
1B
b110111 '
b110111 W
b1001 !
b1001 @
b1001 %
b1001 X
1"
b110 Z
15
#1750000
05
#1755000
b111 Z
15
#1760000
05
#1765000
0B
0"
b1000 Z
15
#1770000
05
#1775000
1Y
b110111 T
b1010 R
b1001 Z
15
#1780000
05
#1785000
1H
b110111 ]
b0 \
b1010 (
b1010 E
b1010 [
b0 Z
0Y
b100 N
b10 O
15
#1790000
05
#1795000
b110111 (
b110111 E
b110111 [
b1010 \
b1 Z
15
#1800000
05
#1805000
b10 Z
15
#1810000
05
#1815000
b1 ]
b11 Z
15
#1820000
05
#1825000
b100 Z
15
#1830000
05
#1835000
b101 Z
15
#1840000
05
#1845000
1Y
b110111 S
b1010 Q
b110 Z
15
#1850000
05
#1855000
0H
0Y
b1 N
b100 O
b0 Z
15
#1860000
05
#1865000
b1001 (
b1001 E
b1001 [
b1 Z
15
#1870000
05
#1875000
b10 Z
15
#1880000
05
#1885000
b110111 #
b110111 C
b110111 F
1$
b11 Z
15
#1890000
05
#1895000
b100 Z
15
#1900000
05
#1905000
b110111 (
b110111 E
b110111 [
0$
b101 Z
15
#1910000
05
#1915000
b110 Z
15
#1920000
05
#1925000
1Y
b111 Z
15
#1930000
05
#1935000
0Y
1*
b0 Z
15
#1940000
05
#1945000
b1001 (
b1001 E
b1001 [
b1 Z
15
#1950000
05
#1955000
b10 Z
15
#1960000
05
#1965000
1$
b11 Z
15
#1970000
05
#1975000
b100 Z
15
#1980000
05
#1985000
b110111 (
b110111 E
b110111 [
0$
b101 Z
15
#1990000
05
#1995000
b110 Z
15
#2000000
05
#2005000
1Y
b111 Z
15
#2010000
05
#2015000
0Y
b0 Z
15
#2020000
05
#2025000
b1001 (
b1001 E
b1001 [
b1 Z
15
#2030000
05
#2035000
b10 Z
15
#2040000
05
#2045000
1$
b11 Z
15
#2050000
05
#2055000
b100 Z
15
#2060000
05
#2065000
b110111 (
b110111 E
b110111 [
0$
b101 Z
15
#2070000
05
#2075000
b110 Z
15
#2080000
05
#2085000
1Y
b111 Z
15
#2090000
05
#2095000
0Y
b0 Z
15
#2100000
05
#2105000
b1001 (
b1001 E
b1001 [
b1 Z
15
#2110000
05
#2115000
b10 Z
15
#2120000
05
#2125000
1$
b11 Z
15
#2130000
05
#2135000
b100 Z
15
#2140000
05
#2145000
b110111 (
b110111 E
b110111 [
0$
b101 Z
15
#2150000
05
#2155000
b110 Z
15
#2160000
05
#2165000
1Y
b111 Z
15
#2170000
05
#2175000
0Y
b0 Z
15
#2180000
05
#2185000
b1001 (
b1001 E
b1001 [
b1 Z
15
#2190000
05
#2195000
b10 Z
15
#2200000
05
#2205000
1$
b11 Z
15
#2210000
05
#2215000
b100 Z
15
#2220000
05
#2225000
b110111 (
b110111 E
b110111 [
0$
b101 Z
15
#2230000
05
#2235000
b110 Z
15
#2240000
05
#2245000
1Y
b111 Z
15
#2250000
05
#2255000
0Y
b0 Z
15
#2260000
05
#2265000
b1001 (
b1001 E
b1001 [
b1 Z
15
#2270000
05
#2275000
b10 Z
15
#2280000
05
#2285000
1$
b11 Z
15
#2290000
05
#2295000
b100 Z
15
#2300000
05
#2305000
b110111 (
b110111 E
b110111 [
0$
b101 Z
15
#2310000
05
#2315000
b110 Z
15
#2320000
05
#2325000
1Y
b111 Z
15
#2330000
05
#2335000
0Y
b0 Z
15
#2340000
05
#2345000
b1001 (
b1001 E
b1001 [
b1 Z
15
#2350000
05
#2355000
b10 Z
15
#2360000
05
#2365000
1$
b11 Z
15
#2370000
05
#2375000
b100 Z
15
#2380000
05
#2385000
b110111 (
b110111 E
b110111 [
0$
b101 Z
15
#2390000
05
#2395000
b110 Z
15
#2400000
05
#2405000
1Y
b111 Z
15
#2410000
05
#2415000
0Y
b0 Z
15
#2420000
05
#2425000
b1001 (
b1001 E
b1001 [
b1 Z
15
#2430000
05
#2435000
b10 Z
15
#2440000
05
#2445000
1$
b11 Z
15
#2450000
05
#2455000
b100 Z
15
#2460000
05
#2465000
b110111 (
b110111 E
b110111 [
0$
b101 Z
15
#2470000
05
#2475000
b110 Z
15
#2480000
05
#2485000
1Y
b111 Z
15
#2490000
05
#2495000
0Y
b0 Z
15
#2500000
05
#2505000
b1001 (
b1001 E
b1001 [
b1 Z
15
#2510000
05
#2515000
b10 Z
15
#2520000
05
#2525000
1$
b11 Z
15
#2530000
05
#2535000
b100 Z
15
#2540000
05
#2545000
b110111 (
b110111 E
b110111 [
0$
b101 Z
15
#2550000
05
#2555000
b110 Z
15
#2560000
05
#2565000
1Y
b111 Z
15
#2570000
05
#2575000
0Y
b0 Z
15
#2580000
05
#2585000
b1001 (
b1001 E
b1001 [
b1 Z
15
#2590000
05
#2595000
b10 Z
15
#2600000
05
#2605000
1$
b11 Z
15
#2610000
05
#2615000
b100 Z
15
#2620000
05
#2625000
b110111 (
b110111 E
b110111 [
0$
b101 Z
15
#2630000
05
#2635000
b110 Z
15
#2640000
05
#2645000
1Y
b111 Z
15
#2650000
05
#2655000
0Y
b0 Z
15
#2660000
05
#2665000
b1001 (
b1001 E
b1001 [
b1 Z
15
#2670000
05
#2675000
b10 Z
15
#2680000
05
#2685000
1$
b11 Z
15
#2690000
05
#2695000
b100 Z
15
#2700000
05
#2705000
b110111 (
b110111 E
b110111 [
0$
b101 Z
15
#2710000
05
#2715000
b110 Z
15
#2720000
05
#2725000
1Y
b111 Z
15
#2730000
05
#2735000
0Y
b0 Z
15
#2740000
05
#2745000
b1001 (
b1001 E
b1001 [
b1 Z
15
#2750000
05
#2755000
b10 Z
15
#2760000
05
#2765000
1$
b11 Z
15
#2770000
05
#2775000
b100 Z
15
#2780000
05
#2785000
b110111 (
b110111 E
b110111 [
0$
b101 Z
15
#2790000
05
#2795000
b110 Z
15
#2800000
05
#2805000
1Y
b111 Z
15
#2810000
05
#2815000
0Y
b0 Z
15
#2820000
05
#2825000
b1001 (
b1001 E
b1001 [
b1 Z
15
#2830000
05
#2835000
b10 Z
15
#2840000
05
#2845000
1$
b11 Z
15
#2850000
05
#2855000
b100 Z
15
#2860000
05
#2865000
b110111 (
b110111 E
b110111 [
0$
b101 Z
15
#2870000
05
#2875000
b110 Z
15
#2880000
05
#2885000
1Y
b111 Z
15
#2890000
05
#2895000
0Y
b0 Z
15
#2900000
05
#2905000
b1001 (
b1001 E
b1001 [
b1 Z
15
#2910000
05
#2915000
b10 Z
15
#2920000
05
#2925000
1$
b11 Z
15
#2930000
05
#2935000
b100 Z
15
#2940000
05
#2945000
b110111 (
b110111 E
b110111 [
0$
b101 Z
15
#2950000
05
#2955000
b110 Z
15
#2960000
05
#2965000
1Y
b111 Z
15
#2970000
05
#2975000
0Y
b0 Z
15
#2980000
05
#2985000
b1001 (
b1001 E
b1001 [
b1 Z
15
#2990000
05
#2995000
b10 Z
15
#3000000
05
#3005000
1$
b11 Z
15
#3010000
05
#3015000
b100 Z
15
#3020000
05
#3025000
b110111 (
b110111 E
b110111 [
0$
b101 Z
15
#3030000
05
#3035000
b110 Z
15
#3040000
05
#3045000
1Y
b111 Z
15
#3050000
05
#3055000
0Y
b0 Z
15
#3060000
05
#3065000
b1001 (
b1001 E
b1001 [
b1 Z
15
#3070000
05
#3075000
b10 Z
15
#3080000
05
#3085000
1$
b11 Z
15
#3090000
05
#3095000
b100 Z
15
#3100000
05
#3105000
b110111 (
b110111 E
b110111 [
0$
b101 Z
15
#3110000
05
#3115000
b110 Z
15
#3120000
05
#3125000
1Y
b111 Z
15
#3130000
05
#3135000
0Y
b0 Z
15
#3140000
05
#3145000
b1001 (
b1001 E
b1001 [
b1 Z
15
#3150000
05
#3155000
b10 Z
15
#3160000
05
#3165000
1$
b11 Z
15
#3170000
05
#3175000
b100 Z
15
#3180000
05
#3185000
b110111 (
b110111 E
b110111 [
0$
b101 Z
15
#3190000
05
#3195000
b110 Z
15
#3200000
05
#3205000
1Y
b111 Z
15
#3210000
05
#3215000
0Y
b0 Z
15
#3220000
05
#3225000
b1001 (
b1001 E
b1001 [
b1 Z
15
#3230000
05
#3235000
b10 Z
15
#3240000
05
#3245000
1$
b11 Z
15
#3250000
05
#3255000
b100 Z
15
#3260000
05
#3265000
b110111 (
b110111 E
b110111 [
0$
b101 Z
15
#3270000
05
#3275000
b110 Z
15
#3280000
05
#3285000
1Y
b111 Z
15
#3290000
05
#3295000
0Y
b0 Z
15
#3300000
05
#3305000
b1001 (
b1001 E
b1001 [
b1 Z
15
#3310000
05
#3315000
b10 Z
15
#3320000
05
#3325000
1$
b11 Z
15
#3330000
05
#3335000
b100 Z
15
#3340000
05
#3345000
b110111 (
b110111 E
b110111 [
0$
b101 Z
15
#3350000
05
#3355000
b110 Z
15
#3360000
05
#3365000
1Y
b111 Z
15
#3370000
05
#3375000
0Y
b0 Z
15
#3380000
05
#3385000
b1001 (
b1001 E
b1001 [
b1 Z
15
#3390000
05
#3395000
b10 Z
15
#3400000
05
#3405000
1$
b11 Z
15
#3410000
05
#3415000
b100 Z
15
#3420000
05
#3425000
b110111 (
b110111 E
b110111 [
0$
b101 Z
15
#3430000
05
#3435000
b110 Z
15
#3440000
05
#3445000
1Y
b111 Z
15
#3450000
05
#3455000
0Y
b0 Z
15
#3460000
05
#3465000
b1001 (
b1001 E
b1001 [
b1 Z
15
#3470000
05
#3475000
b10 Z
15
#3480000
05
#3485000
1$
b11 Z
15
#3490000
05
#3495000
b100 Z
15
#3500000
05
#3505000
b110111 (
b110111 E
b110111 [
0$
b101 Z
15
#3510000
05
#3515000
b110 Z
15
#3520000
05
#3525000
1Y
b111 Z
15
#3530000
05
#3535000
0Y
b0 Z
15
#3540000
05
#3545000
b1001 (
b1001 E
b1001 [
b1 Z
15
#3550000
05
#3555000
b10 Z
15
#3560000
05
#3565000
1$
b11 Z
15
#3570000
05
#3575000
b100 Z
15
#3580000
05
#3585000
b110111 (
b110111 E
b110111 [
0$
b101 Z
15
#3590000
05
#3595000
b110 Z
15
#3600000
05
#3605000
1Y
b111 Z
15
#3610000
05
#3615000
0Y
b0 Z
15
#3620000
05
#3625000
b1001 (
b1001 E
b1001 [
b1 Z
15
#3630000
05
#3635000
b10 Z
15
#3640000
05
#3645000
1$
b11 Z
15
#3650000
05
#3655000
b100 Z
15
#3660000
05
#3665000
b110111 (
b110111 E
b110111 [
0$
b101 Z
15
#3670000
05
#3675000
b110 Z
15
#3680000
05
#3685000
1Y
b111 Z
15
#3690000
05
#3695000
0Y
b0 Z
15
#3700000
05
#3705000
b1001 (
b1001 E
b1001 [
b1 Z
15
#3710000
05
#3715000
b10 Z
15
#3720000
05
#3725000
1$
b11 Z
15
#3730000
05
#3735000
b100 Z
15
#3740000
05
#3745000
b110111 (
b110111 E
b110111 [
0$
b101 Z
15
#3750000
05
#3755000
b110 Z
15
#3760000
05
#3765000
1Y
b111 Z
15
#3770000
05
#3775000
0Y
b0 Z
15
#3780000
05
#3785000
b1001 (
b1001 E
b1001 [
b1 Z
15
#3790000
05
#3795000
b10 Z
15
#3800000
05
#3805000
1$
b11 Z
15
#3810000
05
#3815000
b100 Z
15
#3820000
05
#3825000
b110111 (
b110111 E
b110111 [
0$
b101 Z
15
#3830000
05
#3835000
b110 Z
15
#3840000
05
#3845000
1Y
b111 Z
15
#3850000
05
#3855000
0Y
b0 Z
15
#3860000
05
#3865000
b1001 (
b1001 E
b1001 [
b1 Z
15
#3870000
05
#3875000
b10 Z
15
#3880000
05
#3885000
1$
b11 Z
15
#3890000
05
#3895000
b100 Z
15
#3900000
05
#3905000
b110111 (
b110111 E
b110111 [
0$
b101 Z
15
#3910000
05
#3915000
b110 Z
15
#3920000
05
#3925000
1Y
b111 Z
15
#3930000
05
#3935000
0Y
b0 Z
15
#3940000
05
#3945000
b1001 (
b1001 E
b1001 [
b1 Z
15
#3950000
05
#3955000
b10 Z
15
#3960000
05
#3965000
1$
b11 Z
15
#3970000
05
#3975000
b100 Z
15
#3980000
05
#3985000
b110111 (
b110111 E
b110111 [
0$
b101 Z
15
#3990000
05
#3995000
b110 Z
15
#4000000
05
#4005000
1Y
b111 Z
15
#4010000
05
#4015000
0Y
b0 Z
15
#4020000
05
#4025000
b1001 (
b1001 E
b1001 [
b1 Z
15
#4030000
05
#4035000
b10 Z
15
#4040000
05
#4045000
1$
b11 Z
15
#4050000
05
#4055000
b100 Z
15
#4060000
05
#4065000
b110111 (
b110111 E
b110111 [
0$
b101 Z
15
#4070000
05
#4075000
b110 Z
15
#4080000
05
#4085000
1Y
b111 Z
15
#4090000
05
#4095000
0Y
b0 Z
15
#4100000
05
#4105000
b1001 (
b1001 E
b1001 [
b1 Z
15
#4110000
05
#4115000
b10 Z
15
#4120000
05
#4125000
1$
b11 Z
15
#4130000
05
#4135000
b100 Z
15
#4140000
05
#4145000
b110111 (
b110111 E
b110111 [
0$
b101 Z
15
#4150000
05
#4155000
b110 Z
15
#4160000
05
#4165000
1Y
b111 Z
15
#4170000
05
#4175000
0Y
b0 Z
15
#4180000
05
#4185000
b1001 (
b1001 E
b1001 [
b1 Z
15
#4190000
05
#4195000
b10 Z
15
#4200000
05
#4205000
1$
b11 Z
15
#4210000
05
#4215000
b100 Z
15
#4220000
05
#4225000
b110111 (
b110111 E
b110111 [
0$
b101 Z
15
#4230000
05
#4235000
b110 Z
15
#4240000
05
#4245000
1Y
b111 Z
15
#4250000
05
#4255000
0Y
b0 Z
15
#4260000
05
#4265000
b1001 (
b1001 E
b1001 [
b1 Z
15
#4270000
05
#4275000
b10 Z
15
#4280000
05
#4285000
1$
b11 Z
15
#4290000
05
#4295000
b100 Z
15
#4300000
05
#4305000
b110111 (
b110111 E
b110111 [
0$
b101 Z
15
#4310000
05
#4315000
b110 Z
15
#4320000
05
#4325000
1Y
b111 Z
15
#4330000
05
#4335000
0Y
b0 Z
15
#4340000
05
#4345000
b1001 (
b1001 E
b1001 [
b1 Z
15
#4350000
05
#4355000
b10 Z
15
#4360000
05
#4365000
1$
b11 Z
15
#4370000
05
